^C:\TESTSIEMENS\SETSOLITAIRE\SETSOLITAIRE\DEBUG\CARD.OBJ|C:\TESTSIEMENS\SETSOLITAIRE\SETSOLITAIRE\DEBUG\DEALER.OBJ|C:\TESTSIEMENS\SETSOLITAIRE\SETSOLITAIRE\DEBUG\DECK.OBJ|C:\TESTSIEMENS\SETSOLITAIRE\SETSOLITAIRE\DEBUG\GAMEBOARD.OBJ|C:\TESTSIEMENS\SETSOLITAIRE\SETSOLITAIRE\DEBUG\MAIN.OBJ
C:\TESTSIEMENS\SETSOLITAIRE\DEBUG\SETSOLITAIRE.ILK
C:\TESTSIEMENS\SETSOLITAIRE\DEBUG\SETSOLITAIRE.EXE
C:\TESTSIEMENS\SETSOLITAIRE\DEBUG\SETSOLITAIRE.PDB
